<?xml version="1.0" encoding="UTF-8"?>
<svg xmlns="http://www.w3.org/2000/svg" xmlns:xlink="http://www.w3.org/1999/xlink" id="Video_Group_1" data-name="Video Group 1" viewBox="0 0 1440 1440">
  <defs>
    <style>.cls-1{fill:url(#linear-gradient);}</style>
    <linearGradient id="linear-gradient" x1="720" x2="720" y2="1440" gradientUnits="userSpaceOnUse">
      <stop offset="0" stop-color="#ffc500" />
      <stop offset="0.09" stop-color="#fdc621" />
      <stop offset="0.28" stop-color="#fac963" />
      <stop offset="0.46" stop-color="#f8cc9a" />
      <stop offset="0.63" stop-color="#f6cec5" />
      <stop offset="0.78" stop-color="#f4cfe4" />
      <stop offset="0.91" stop-color="#f3d0f6" />
      <stop offset="1" stop-color="#f3d0fd" />
    </linearGradient>
  </defs>
  <title>gradient-cut-out</title>
  <path class="cls-1" d="M0,0V1440H1440V0ZM979.19,1027.69q-.5,137-1,274c-5.07,10.61-18.17,13.93-27,21l-12,18c-16.4,11.38-44.68,14.58-67,19-89.07,17.65-294.16,15.75-363-15-11.08-5-10.09-14.07-18-21l-25-17c-10.09-13.68-2.63-27.89-4-43q-.49-132.48-1-265,.49-406.46,1-813c5.57-23.6,23.92-30,24-63-9.39-4.16-14.2-10.31-11-24,19.72-24.25,102.41-20.87,143-27l50-2c86.52-.68,246-5.16,297,27q.49,9,1,18l-11,7c-.23,35.65,19,41.17,24,68Z" />
</svg>